// Jest Snapshot v1, https://goo.gl/fbAQLP

exports[`shallowMounted StepCardsView renders correctly 1`] = `
<stepsoverview-stub
  activestepids="-1"
  disabledstepids=""
  draggable="true"
  steptooltip="[Function]"
  value="[object Object],[object Object],[object Object],[object Object],[object Object],[object Object]"
/>
`;
