{
    "ordering": [
      [
        "A1"
      ]
    ],
    "brand": {
      "brand": "EnginZyme",
      "brandId": [
        "Fat reservoir V1"
      ]
    },
    "metadata": {
      "displayName": "Fat reservoir",
      "displayCategory": "reservoir",
      "displayVolumeUnits": "µL",
      "tags": []
    },
    "dimensions": {
      "xDimension": 127.75,
      "yDimension": 85.5,
      "zDimension": 110
    },
    "schemaVersion": 2,
    "version": 1,
    "namespace": "custom_beta",
    "wells": {
      "A1": {
        "depth": 94,
        "totalLiquidVolume": 100000,
        "shape": "circular",
        "diameter": 30,
        "x": 64,
        "y": 42.75,
        "z": 16
      }
    },
    "parameters": {
      "format": "irregular",
      "quirks": [],
      "isTiprack": false,
      "isMagneticModuleCompatible": false,
      "loadName": "fat_reservoir"
    },
    "groups": [
      {
        "metadata": {
          "wellBottomShape": "flat",
          "displayCategory": "reservoir"
        },
        "wells": [
          "A1"
        ]
      }
    ],
    "cornerOffsetFromSlot": {
      "x": 0,
      "y": 0,
      "z": 0
    }
  }
