// Jest Snapshot v1, https://goo.gl/fbAQLP

exports[`shallowMounted PauseConfigForm renders correctly 1`] = `
<div
  class="step_config_form"
>
  <p
    class="step_config_form__title"
  >
    Pause
  </p>
   
  <div
    class="step_config_form__body"
  >
    <div
      class="step_config_form__body__content"
    >
      <div>
        <p
          class="step_config_form__body__content__label--medium"
        >
          
            Step Name
          
        </p>
         
        <stepnameinput-stub
          class="step_config_form__body__content__input--long"
          stepname="Pause (3)"
        />
      </div>
       
      <div>
        <p
          class="step_config_form__body__content__label--medium"
        >
          
            Pause Time (Seconds)
          
        </p>
         
        <div
          class="form_sub_group"
        >
          <div>
            <p
              class="step_config_form__body__content__label--min"
            >
              
                Value
                
              <helptooltip-stub
                tooltip="Positive integers ranging from 1 to 999999"
              />
            </p>
             
            <inputnumber
              class="step_config_form__body__content__input--short"
              disabled="disabled"
              max="999999"
              min="1"
            />
          </div>
           
          <div>
            <p
              class="step_config_form__body__content__label--min"
            >
              Unit
            </p>
             
            <dropdown
              class="step_config_form__body__content__dropdown"
              disabled="disabled"
              optionlabel="name"
              options="[object Object],[object Object],[object Object]"
              placeholder="Select option"
            />
          </div>
        </div>
      </div>
       
      <div>
        <p />
         
        <div>
          <selectbutton
            class="step_config_form__body__content__toggle_button"
            optionlabel="name"
            options="[object Object],[object Object]"
          />
        </div>
      </div>
    </div>
  </div>
</div>
`;
